%YAML 1.1
%TAG !u! tag:unity3d.com,2011:
--- !u!1001 &4241863779557902083
PrefabInstance:
  m_ObjectHideFlags: 0
  serializedVersion: 2
  m_Modification:
    serializedVersion: 3
    m_TransformParent: {fileID: 0}
    m_Modifications:
    - target: {fileID: 2967983052330259977, guid: 0c49cb0ec3ea265419c4978893433733,
        type: 3}
      propertyPath: m_RootOrder
      value: 0
      objectReference: {fileID: 0}
    - target: {fileID: 2967983052330259977, guid: 0c49cb0ec3ea265419c4978893433733,
        type: 3}
      propertyPath: m_LocalPosition.x
      value: 20.469162
      objectReference: {fileID: 0}
    - target: {fileID: 2967983052330259977, guid: 0c49cb0ec3ea265419c4978893433733,
        type: 3}
      propertyPath: m_LocalPosition.y
      value: -0.0000076293945
      objectReference: {fileID: 0}
    - target: {fileID: 2967983052330259977, guid: 0c49cb0ec3ea265419c4978893433733,
        type: 3}
      propertyPath: m_LocalPosition.z
      value: -14.255188
      objectReference: {fileID: 0}
    - target: {fileID: 2967983052330259977, guid: 0c49cb0ec3ea265419c4978893433733,
        type: 3}
      propertyPath: m_LocalRotation.w
      value: 1
      objectReference: {fileID: 0}
    - target: {fileID: 2967983052330259977, guid: 0c49cb0ec3ea265419c4978893433733,
        type: 3}
      propertyPath: m_LocalRotation.x
      value: 0
      objectReference: {fileID: 0}
    - target: {fileID: 2967983052330259977, guid: 0c49cb0ec3ea265419c4978893433733,
        type: 3}
      propertyPath: m_LocalRotation.y
      value: 0
      objectReference: {fileID: 0}
    - target: {fileID: 2967983052330259977, guid: 0c49cb0ec3ea265419c4978893433733,
        type: 3}
      propertyPath: m_LocalRotation.z
      value: 0
      objectReference: {fileID: 0}
    - target: {fileID: 2967983052330259977, guid: 0c49cb0ec3ea265419c4978893433733,
        type: 3}
      propertyPath: m_LocalEulerAnglesHint.x
      value: 0
      objectReference: {fileID: 0}
    - target: {fileID: 2967983052330259977, guid: 0c49cb0ec3ea265419c4978893433733,
        type: 3}
      propertyPath: m_LocalEulerAnglesHint.y
      value: 0
      objectReference: {fileID: 0}
    - target: {fileID: 2967983052330259977, guid: 0c49cb0ec3ea265419c4978893433733,
        type: 3}
      propertyPath: m_LocalEulerAnglesHint.z
      value: 0
      objectReference: {fileID: 0}
    - target: {fileID: 8787168800099938335, guid: 0c49cb0ec3ea265419c4978893433733,
        type: 3}
      propertyPath: m_GunObject
      value: 
      objectReference: {fileID: 3323765104263317895}
    - target: {fileID: 8787168800099938335, guid: 0c49cb0ec3ea265419c4978893433733,
        type: 3}
      propertyPath: m_KnifeActive
      value: 0
      objectReference: {fileID: 0}
    - target: {fileID: 8787168800099938335, guid: 0c49cb0ec3ea265419c4978893433733,
        type: 3}
      propertyPath: m_TrailRenderer
      value: 
      objectReference: {fileID: 1382305309117885875, guid: 8361ae8ed7893cf45b15a381e3a650b3,
        type: 3}
    - target: {fileID: 8787168800099938335, guid: 0c49cb0ec3ea265419c4978893433733,
        type: 3}
      propertyPath: m_ShootMask.m_Bits
      value: 1975
      objectReference: {fileID: 0}
    - target: {fileID: 8787168800099938335, guid: 0c49cb0ec3ea265419c4978893433733,
        type: 3}
      propertyPath: m_TransitionDuration
      value: 0.1
      objectReference: {fileID: 0}
    - target: {fileID: 9197637728072154407, guid: 0c49cb0ec3ea265419c4978893433733,
        type: 3}
      propertyPath: m_Name
      value: PlayerWithMuzzzleFlash
      objectReference: {fileID: 0}
    - target: {fileID: 9197637728072154407, guid: 0c49cb0ec3ea265419c4978893433733,
        type: 3}
      propertyPath: m_IsActive
      value: 1
      objectReference: {fileID: 0}
    m_RemovedComponents: []
    m_RemovedGameObjects:
    - {fileID: 7053078080030063831, guid: 0c49cb0ec3ea265419c4978893433733, type: 3}
    m_AddedGameObjects: []
    m_AddedComponents: []
  m_SourcePrefab: {fileID: 100100000, guid: 0c49cb0ec3ea265419c4978893433733, type: 3}
--- !u!1 &3323765104263317895 stripped
GameObject:
  m_CorrespondingSourceObject: {fileID: 1512719515703660164, guid: 0c49cb0ec3ea265419c4978893433733,
    type: 3}
  m_PrefabInstance: {fileID: 4241863779557902083}
  m_PrefabAsset: {fileID: 0}
